{"hash":"104e9957bb95154a061d53f76710e0efda2a910a","data":{"author":{"id":"Julia","title":"Julia","path":"/author/Julia/","belongsTo":{"totalCount":9,"pageInfo":{"totalPages":2,"currentPage":2},"edges":[{"node":{"id":"48d7e4f3cca03584f5c96ef40e546e41","title":" Po co używam sticky notes?","datetime":"2018-08-13 10:56:24","path":"/po-co-uzywam-sticky-notes/","cover":"/images/posts/sticky/0.jpg","content":"<h2 id=\"jestem-z-it-i-wbrew-pozorom-moim-pierwszym-narzędziem-od-którego-zaczynam-pracę-nie-jest-komputer-tak-pc-bardzo-usprawnia-pracę-i-umożliwia-rzeczy-niemożliwe-tego-nie-mogę-zaprzeczyć-sęk-w-tym-że-nie-przemyśli-za-nas-wszystkiego-to-my-mamy-mózg-i-podejmujemy-różne-decyzje-które-są-czasami-trudne-i-tutaj-w-pomocy-nam-przychodzą-samoprzylepne-karteczki\">Jestem z IT. I wbrew pozorom, moim pierwszym narzędziem od którego zaczynam pracę, nie jest komputer! Tak, PC bardzo usprawnia pracę i umożliwia rzeczy niemożliwe. Tego nie mogę zaprzeczyć. Sęk w tym, że nie przemyśli za nas wszystkiego. To my mamy mózg i podejmujemy różne decyzje, które są czasami trudne. I tutaj w pomocy nam przychodzą samoprzylepne karteczki!</h2>\n<p><img src=\"/images/posts/sticky/1.jpg\"></p>\n<div align=\"center\"> \nTo (jeszcze) nie mój pokój.</div>\n<h3 id=\"hola-hola-jak-to-gloryfikujesz-kartki-papieru-co-z-tobą-nie-tak\">Hola, hola, jak to <em>gloryfikujesz</em> kartki papieru? Co z Tobą nie tak?</h3>\n<p>To nie tak, że karteczki robią za nas całą robotę. One, tak jak komputer, tylko usprawniają nasze działania, w tym przypadku organizację pracy.<br>\nZapisywanie swoich zadań na papierze sprawia, że nie musimy o nich pamiętać przez cały czas. W ten sposób można się skupić na swojej pracy i nie myśleć o zbędnych rzeczach. Po prostu zajmujemy się swoją sprawą, kończymy i sprawdzamy na naszej taskliście co mamy zrobić później. Easy, huh?  </p>\n<p>Kolorowe karteczki świetnie sprawdzają się w genialnych rozwiązaniach organizacyjnych, takich jak na przykład opisanych w <strong><a href=\"https://pl.wikipedia.org/wiki/Manifest_Agile\" target=\"_blank\" rel=\"nofollow noopener noreferrer\">Manifeście Agile</a>.</strong> <em>Sticky notes</em> dość często są używane podczas realizacji projektów informatycznych w oparciu o <a href=\"http://4pm.pl/artykuly/zwinne-metodyki-zarzadzania-projektami\" target=\"_blank\" rel=\"nofollow noopener noreferrer\">metodyki zwinne</a>.<br>\nCzym są owe metodyki? Są to sposoby wytwarzania oprogramowania, które pozwalają na <strong>elastyczne zarządzanie pracą</strong>.  </p>\n<p>W praktyce wygląda to tak, że spisujecie na karteczkach kolejne pomysły, wdrażacie, odklejacie stare i doklejacie nowe. <em><a href=\"https://pl.wikipedia.org/wiki/Scrum\" target=\"_blank\" rel=\"nofollow noopener noreferrer\">Sprintujecie</a></em> od jednego etapu do drugiego, w efekcie tworząc dynamicznie rozwijającą się aplikację.  </p>\n<p><img src=\"/images/posts/sticky/5.png\"></p>\n<h3 id=\"komu-to-się-przyda\">Komu to się przyda?</h3>\n<p>Karteczki nie tylko sprawdzą się w pracy informatyka. Możesz je używać <strong>gdziekolwiek</strong>. Są <strong>małe</strong>, <strong>poręczne</strong> i <strong>zmieścisz je</strong> nawet <strong>w kieszeni</strong>. Nie są elektroniczne, więc nie trzeba się martwić o wyczerpaną baterię czy uszkodzenia techniczne. </p>\n<p><strong>Przykładowe sytuacje, w których możesz wykorzystać karteczki: </strong></p>\n<ul>\n<li>impreza rodzinna</li>\n<li>nauka na sprawdzian</li>\n<li>planowanie zadań w swojej firmie</li>\n<li>przydzielanie domownikom ich obowiązków w mieszkaniu (np sprzątanie w soboty o 12)</li>\n<li>zapisywanie pomysłów na ciekawe projekty</li>\n<li>pisanie wierszy</li>\n<li>budowanie różowego czołgu z karteczek</li>\n</ul>\n<p><img src=\"/images/posts/sticky/2.jpg\"></p>\n<div align=\"center\"> \nTwój toksyczny kolega znowu Cię zdenerwował? Wtedy można, jeszcze jak!</div>\n<h3 id=\"komfort\">Komfort</h3>\n<p>Mi osobiście karteczki zauważalnie zmieniły życie. Jeszcze parę lat temu byłam strasznie spontaniczną, impulsywną osobą. Teraz większość rzeczy planuję, zapisuję pomysły i czuję komfort psychiczny. Lubię to. Bardzo pomaga mi to w kreatywnej pracy.  </p>\n<p>... No i nie tylko pracy. Czytam dużo książek naukowych i z tego materiału <strong>robię notatki</strong>, zaznaczając sobie karteczkami najważniejsze informacje. Nie można przesadzić - jeśli masz za dużo karteczek, to znaczy, że prawdopodobnie zapisujesz mało istotne informacje. <strong>A wtedy efekt wyróżnienia treści znika.</strong></div></p>\n<h3 id=\"nudny-wykład-nie-potrzebujesz-telefonu-by-się-dobrze-bawić\">Nudny wykład? Nie potrzebujesz telefonu by się dobrze bawić.</h3>\n<p>Kwadratowe karteczki doskonale się sprawdzą do składania origami. Swego czasu, byłam fanatyczką papierowych figurek i umiem składać różne kształty z zamkniętymi oczami. Fascynujące zajęcie, ach!</p>\n<p><img src=\"/images/posts/sticky/3.jpg\"></p>\n<div align=\"center\"> \nJak dobrze, że niektórzy mają takie pomysły!\n</div>\n<h3 id=\"gdzie-się-zaopatrzyć-w-takie-karteczki\">Gdzie się zaopatrzyć w takie karteczki?</h3>\n<p>Możesz je <strong>kupić</strong> <strong>w prawie każdym sklepie</strong>. Są wszędzie, jak reptalianie. Nieno, żartuję. Po prostu są popularne : - ) Kosztują od <strong>50 gr</strong> (chińskie sklepy poukrywane w dziwnych częsciach miasta), przez <strong>2 zł</strong> (np <em>Kaufland</em>), po <strong>10 zł</strong> w których masz ogromny blok karteczek (chyba jest ich 1000, to już masa ciężka).  </p>\n<p>Nie chcesz wydawać pieniędzy? Weź zwykłą kartkę, zeszyt czy cokolwiek i potnij na kwadraciki 7x7cm, też mogą być.  </p>\n<p>Moim zdaniem karteczka karteczce równa i nie trzeba przepłacać. No chyba, że zależy Ci by solidnie przyklejały się do ściany i nie odpadały z biegiem czasu.  </p>\n<blockquote>\n<p>Twoja lista zadań wisi na ścianie 2 miesiące? Zastanów się, czy aby na pewno dobrze organizujesz pracę.</p>\n</blockquote>\n<p>Z moich obserwacji wynika, że ludzie na widok sticky notes dostają <strong>momentalny uśmiech</strong>. Nie wiem od czego zależy taka reakcja, czy od <strong>różnorodności kolorów</strong>, czy po prostu od <strong>podśmiechiwania</strong> się z przesadnego zorganizowania współpracownika. <strong>Pozytywne emocje?</strong> Są! Tego się trzymajmy.  </p>\n<p><img src=\"/images/posts/sticky/4.jpg\"></p>\n<h3 id=\"przyklejanie-nowych-zadań-może-być-frajdą\">Przyklejanie nowych zadań może być frajdą.</h3>\n<p>Jesli dotychczas nie używałeś karteczek - <strong>zrób sobie challenge.</strong> Przez <em>tydzień</em> systematycznie <strong>planuj</strong> i <strong>zapisuj</strong> swoje <strong>zadania</strong>. Po wypełnieniu ich - przekreślaj. Zobaczysz, ile w przeciągu tygodnia robisz dla siebie i swojego rozwoju. Może zauważysz jakieś dziwne nawyki w swoim życiu? Kto wie!  </p>\n<p>Z chęcią to zobaczę.  </p>\n<p>Miłego dnia, drogi Czytelniku.</p>\n","excerpt":"","description":"Po co używam sticky notes?","timeToRead":3,"tags":[{"id":"lifehack","title":"lifehack","path":"/tag/lifehack/"}]}},{"node":{"id":"a207bb7a596e258f9e81745888ba977c","title":"Jak nie skrzywdzić swojego laptopa?","datetime":"2018-07-10 10:56:24","path":"/jak-nie-skrzywdzic-swojego-laptopa/","cover":"/images/posts/laptop/2.gif","content":"<h3 id=\"przy-codziennej-eksploatacji-komputera-łatwo-zaniedbać-jego-wygląd-długotrwałe-zaniedbanie-potrafi-już-pozostawić-ślad-na-stałe\">Przy codziennej eksploatacji komputera łatwo zaniedbać jego wygląd. Długotrwałe zaniedbanie potrafi już pozostawić ślad na stałe.</h3>\n<h3 id=\"1-zwróć-uwagę-na-gumki-ochronne\">1. Zwróć uwagę na gumki ochronne.</h3>\n<p>Na klapie każdego laptopa znajdują się gumowe elementy chroniące przed ocieraniem jej o palmrest. Niestety klej mocujący te elementy nie jest wieczny, przez co po jakimś czasie mogą się one odkleić. Kiedy odpadnie, zwróć uwagę, by przykleić ten element z powrotem. Długotrwałe używanie laptopa bez gumek ochronnych uszkodzi obudowę, tworząc na niej nieestetyczne rysy. Częste podróżowanie ze sprzętem, systematyczne zamykanie i otwieranie klapy przyspieszają proces niszczenia przez ocieranie. Tak właśnie oszpeciłam swojego starego laptopa.  </p>\n<p><img src=\"/images/posts/laptop/1.jpg\"></p>\n<div align=\"center\"> \nPorysowana obudowa jako efekt braku elementów amortyzujących</div>\n<h3 id=\"2-czyść-klawiaturę-nie-tylko-z-wierzchu\">2. Czyść klawiaturę (nie tylko z wierzchu!).</h3>\n<div>  \nKomu chociaż raz nie zdarzyło się jeść przy laptopie? Chyba nikomu. Często spożywamy posiłki w otoczeniu naszego sprzętu, przez co do klawiatury trafia mnóstwo okruchów. Dodatkowo zbiera się tam kurz, włosy i inne nieprzyjemne rzeczy. Samo przetarcie wilgotną szmatką nie wystarczy, do sprawy trzeba podejść bardziej inaczej. Do przeprowadzenia oczyszczania wystarczy nam jakikolwiek pędzelek z miękkim włosiem (aby nie porysować klawiatury, może być nawet od farbek plakatowych). Nie będziemy ściągać klawiszy, bo łatwo je uszkodzić. Ustawiamy komputer pod kątem 90*, tak by kurz mógł swobodnie opaść. Pędzelkiem staramy się dokładnie dotrzeć pod klawisz i wygrzebać różne pozostałości. Metoda jest całkiem czasochłonna, choć nie trzeba jej wykonywać zbyt często.  \n<p><img src=\"/images/posts/laptop/2.gif\"></p>\n<div align=\"center\"> \nA tak kocham moje laptopy :3\n</div>\n<h3 id=\"3-wyłamane-złącza\">3. Wyłamane złącza</h3>\n<p>Wyłamane złącze to jedna z najbardziej nieprzyjemnych usterek. W takich sytuacjach obawa przed poruszeniem laptopem jest okropna, bo skutkuje regularnym przerywaniem dźwięku (w przypadku wejścia słuchawkowego), przerywaniem obrazu (wejścia obrazu) czy też przerywaniem zasilania. Pomijając aspekty użytkowe, jest to również krzywdzące dla elektroniki, bo może nastąpić zwarcie niszczące inne komponenty.<br>\nW przypadku zauważenia usterki należy jak najszybciej udać się do serwisu lub wymienić element własnoręcznie (czasami to kwestia wymiany jednej płytki, nie wymagającej lutowania). Warto wytworzyć sobie nawyk sprawdzania co jakiś czas, czy żaden wtyk nie jest zgnieciony pod dziwnym kątem. Uchroni to nas przed ewentualnym wyłamaniem złącza lub zniszczeniem kabla.  </p>\n<h3 id=\"4-etui\">4. Etui</h3>\n<p>Noś laptopa w etui, najlepiej dość twardym i odpornym na obicia. Nowsze laptopy mają bardzo delikatne matryce i jedno stuknięcie może ją zniszczyć. Mój obecny laptop jest tak delikatny, że przy mocniejszym przyciśnięciu tylnej klapy, zmienia się kolor matrycy - czyli jest strasznie wrażliwy na cokolwiek :/  </p>\n<h3 id=\"5-podnoszenie-za-klapę\">5. Podnoszenie za klapę</h3>\n<p>To nie moja działka, ale znam osobę co wbiła palec w matrycę podnosząc go. No i pękło, jak każdy delikatny sprzet.  REEEE</p>\n<h3 id=\"6-uduszenie-laptopa\">6. Uduszenie laptopa</h3>\n<p>Przy nocnym leżeniu z komputerem, czasem kładę go na kołdrę. Trzeba uważać, by nie przyblokować wentylatorów i nie przegrzać laptopa. Niektórzy mają podkładki chłodzące do laptopa, moim zdaniem jednak są męczące i ciężkie.</p>\n<h3 id=\"7-szybkie-zamykanie-klapy\">7. Szybkie zamykanie klapy</h3>\n<p>A w szczególności szybkie zamknięcie klapy razem ze słuchawkami († matryca i † zawiasy) :)</p>\n<p>To taki krótki, losowy post. Głównie checklista dla mnie, żeby pamiętać jak nie zepsuć swojego laptopa. </p>\n","excerpt":"","description":"Jak nie skrzywdzić swojego laptopa?","timeToRead":2,"tags":[{"id":"laptopy","title":"laptopy","path":"/tag/laptopy/"},{"id":"lifehack","title":"lifehack","path":"/tag/lifehack/"}]}},{"node":{"id":"01b673a54fe138ff910e48e04c7ae551","title":"Czym jest Big Data?","datetime":"2018-05-31 17:54:43","path":"/czym-jest-big-data/","cover":"/images/posts/big-data/3.jpg","content":"<p>Łączenie z internetem nieuchronnie prowadzi nas do <strong>udostępniania i dostarczania</strong> swoich danych różnym podmiotom. Począwszy od zapisania naszej aktywności w logach naszego dostawcy usług internetowych (ISP), którą mogą badać organy ścigania, skończywszy na różnorodnych portalach społecznościowych i ecommerce, które odwiedzamy. </p>\n<p>Dane zostawiamy jak <strong>odciski palców</strong>, gdy używamy dany przedmiot. Przy umiejętnej analizie, przy wykorzystaniu wiedzy i narzędzi, można zbadać wiele informacji na temat użytkownika.</p>\n<p>Aby przybliżyć skalę gromadzenia danych, można przybliżyć statystyki, które są zamieszczone na infografice (rysunek 1). Na chwilę obecną przyrost danych przyjmuje kształt <strong>funkcji wykładniczej</strong>. Analitycy nie przewidują załamania tej tendencji. <strong>Ponad 90%</strong> ogółu istniejących danych zostało zgromadzone w przeciągu 2 lat\n<a href=\"https://www.ibm.com/analytics/hadoop/big-data-analytics\" target=\"_blank\" rel=\"nofollow noopener noreferrer\">[link do raportu IBM]</a>. </p>\n<p>W 2012 r. Prognozowano <em>podwojenie danych co dwa lata</em> do roku 2020. W 2020 r. Ilość wytworzonych danych cyfrowych przekroczy 40 zettabajtów, co odpowiada 5 200 gigabajtom na każdego mężczyznę, kobietę i dziecko na ziemi. </p>\n<p><img src=\"/images/posts/big-data/1.png\"></p>\n<p>Jak przechowywać tak duże zbiory danych? Do czego się mogą przydać? Czy posiadanie ich może być niebezpieczne? Opracowaniem tych problemów zajmują się badania nad <strong>Big Data</strong>. Ta szeroka dziedzina obejmuje wiele mniejszych sub dziedzin, jak na przykład <strong>uczenie maszynowe, technologie blockchain</strong> czy <strong>rozproszone bazy danych</strong>. W tym krótkim referacie jednak nie starczy miejsca na dokładne opracowanie tych zagadnień, zatem zostaną one wyjaśnione zwięźle.</p>\n<h3 id=\"historia-big-data\">Historia Big Data</h3>\n<p>Jednym z najstarszych <strong>dużych zbiorów danych</strong> była <strong>biblioteka</strong> asyryjskiego króla Assurbanipala. Została ona odkryta w dwóch fazach w czasie prac wykopaliskowych prowadzonych od 1849 roku przez Austena H. Layarda na terenach starożytnej Mezopotamii na wzgórzu Kujundżyk, które kryło w sobie pozostałości pałaców: Sennacheryba i Assurbanipala. </p>\n<p>Jej powstanie szacuje się na VII w p.n.e. Nie znano wtedy papieru, przez co wszystkie dane zostały spisane na <strong>glinianych tabliczkach</strong>. Spisano na nich ówczesne <em>przepisy</em>, <em>ewidencję ludności</em> a także około <em>5000 dzieł literackich</em> religijnych i naukowych z zakresu prawa, historii, astronomii, matematyki. Kolekcja zawiera łącznie ok. 20 000 glinianych tabliczek z obydwu pałaców.</p>\n<p>Biblioteka Assurbanipala jest relatywnie małym zbiorem danych w porównaniu do dzisiejszych zasobów baz danych. Nie należy się dziwić - bariera technologiczna między ówczesnymi czasami a XXI wiekiem jest ogromna. Dawne niezautomatyzowane metody gromadzenia informacji sprawiały, że praca w administracji była trudna i żmudna. Pomimo tego uznałam, że należało o niej wspomnieć, aby zwrócić uwagę na fakt, iż nie jest to nowy termin, a zjawisko istniejące od początku cywilizacji.</p>\n<p>Od czasów Assurbanipala minęło wiele wieków, podczas których rozwijano wiedzę o otaczającym nas świecie. Każda dziedzina ma tyle powiązań z drugą, że nie sposób rozpisać się o absolutnie całej historii danej nauki.\nNależałoby w takiej sytuacji cofnąć się do czasów, gdy odkryto elektryczność, przejść przez dynamiczną historię rozwoju komputerów i ich wydajności, by dopiero móc rozważać nad pełną historią big data. Są jednak takie fakty, które są na tyle ważne, że nie powinno się ich pominąć. </p>\n<p>Istotnym przełomem w cyfryzacji danych było <strong>wynalezienie</strong> w roku 1928 przez <strong>Fritza Pfleumera</strong>, niemiecko-austriackiego inżyniera, <strong>metody przechowywania danych na taśmach magnetycznych</strong>. Zasady, które opracował, są nadal używane, a większość danych cyfrowych jest przechowywana tą właśnie metodą na dyskach twardych komputera. </p>\n<p>W 1956 przeciętny dysk miał <strong>pojemność 5MB</strong>. Obecnie pamięci masowe do wykorzystania w serwerach posiadają pojemność <strong>do 14TB</strong>. Duży przyrost powierzchni dysków w przeciągu 60 lat dał szansę na <strong>lepsze i optymalniejsze</strong> gromadzenie danych.</p>\n<p><img src=\"/images/posts/big-data/2.jpg\"></p>\n<p>W 1997 Michael Cox i David Ellsworth opublikowane <em>\"Application-Controlled Demand Paging for Out-of-Core Visualization\"</em>. Jest to pierwszy artykuł wykorzystujący termin \"big data\". Praca rozpoczyna się od stwierdzenia: </p>\n<blockquote>\n<p>\"Wizualizacja stanowi interesujące wyzwanie dla systemów komputerowych: zbiory danych są na ogół dość duże, obciążając pojemność pamięci głównej, dysku lokalnego, a nawet dysku zdalnego. Nazywamy to problemem dużych zbiorów danych. Gdy zestawy danych nie mieszczą się w pamięci głównej (w rdzeniu) lub gdy nie mieszczą się nawet na dysku lokalnym, najczęstszym rozwiązaniem jest zdobycie większej ilości zasobów. \" </p>\n</blockquote>\n<p>W 1998 roku została założona spółka Google Inc. przez dwóch doktorantów Uniwersytetu Stanforda, Amerykanina Larry'ego Page'a i Rosjanina Siergieja Brina. Opracowali oni nowatorską <strong>metodę analizy powiązań hipertekstowych</strong> – algorytm <strong>BackRub</strong>, potem przemianowany na <strong>PageRank</strong> – którą wykorzystali w swoim prototypie wyszukiwarki internetowej. </p>\n<p>Korzystając z Big Data, korporacja musi rozprawiać się z bilionami danych znajdujących się w sieci i przeanalizować miliardy zachowań ludzi w internecie, aby dokładnie wiedzieć gdzie znaleźć odpowiedzi na zapytania użytkowników. Obecnie bazy danych Google stanowią ponad 1 milion petabajtów danych. Analizują także ponad <strong>24 petabajty danych dziennie</strong>, co stanowi tysiąc razy więcej niż wszystkie materiały wydrukowane kiedykolwiek w Bibliotece Kongresu Stanów Zjednoczonych.  </p>\n<p>Łatwo jest uwierzyć, że istnienie dużych zbiorów danych nie jest bardziej odległe niż kilka ostatnich lat, a analiza danych stała się kluczowa dla przedsiębiorstw dopiero w ostatnich kilku dekadach. To prawda, że ​​stanowisko biznesowe w zakresie analizy danych uległo przesunięciu w czasie; Im bardziej dostępne są dane, tym ważniejsze dla firm jest znalezienie sposobu konwersji danych na <strong>wzbogacone źródła informacji biznesowych</strong>, dzięki czemu zyskują przewagę nad konkurencją. Wiele firm trafnie wykorzystuje dane jako <strong>aktywa biznesowe</strong>, ponieważ są integralną częścią prowadzenia działalności gospodarczej.</p>\n<h3 id=\"czym-są-zatem-big-data\">Czym są zatem Big Data?</h3>\n<p>Jedna z pierwszych definicji Big Data została wprowadzona przez M. Cox i D. Ellswortha w 1997 roku. Autorzy traktują Big Data jako duże dane do analizowania, których liczbę należy maksymalizować w celu wydobycia wartości informacyjnych. Inną propozycję definicji wysunął analityk pracujący dla Gartner w 2001 r., ówcześnie META Group (firmy analityczno-doradczej specjalizującej się w technologiach informacyjnych). Oparł ją na <strong>koncepcji trzech atrybutów w modelu „3V”.</strong></p>\n<p>Big Data charakteryzują atrybuty: <strong>objętość</strong> (volume), <strong>różnorodność</strong> (variety), <strong>szybkość przetwarzania</strong> (velocity) [Doug 2001]. Następnie w roku 2012 firma Gartner wprowadziła dodatkowe dwa wymiary odnoszące się do dużych danych: <strong>zmienność</strong> (variability) i <strong>złożoność</strong> (complexity).</p>\n<p><img src=\"/images/posts/big-data/3.jpg\"></p>\n<p>Big Data należy rozumieć jako techniki łączące rozwiązania z wielu obszarów charakteryzujących dane.</p>\n<ul>\n<li><strong>Szybkość</strong> – dane napływające szybko, strumieniowo, które w związku z procesami<br>\nbiznesowymi wymagają dodatkowej mocy obliczeniowej do ich analizy w<br>\nczasie rzeczywistym.</li>\n<li><strong>Różnorodność</strong> – dane pochodzą z wielu źródeł i często występują w różnych formatach i są zapisywane za pomocą różnych modeli oraz wyrażane w dowolnej formie, np.: liczbowo, tekst, obrazowo, dźwiękowo, oraz generowane w różny sposób.</li>\n<li><strong>Zmienność</strong> – dane, których natężenie jest zmienne w czasie, a przepływy danych<br>\npodlegają okresowym cyklom i trendom, a także szczytom, co związane jest<br>\nrównież z dynamiką procesów i zmian gospodarczych czy politycznych.</li>\n<li><strong>Złożoność</strong> – złożoność danych jest ściśle związana z różnorodnością (semi-structured, „quazi” structured, unstructured), które należy zintegrować w celu odkrycia nieznanych relacji, powiązań i hierarchii. Do danych strukturalnych należą: numery telefonów, pesel, numer karty kredytowej. Dane o mieszanej strukturze to np. pliki XML, e-mail, Elektroniczna Wymiana Danych (Electronic Data Interchange, EDI). Natomiast dane niestrukturalne to: dokumenty, pliki wideo i zdjęcia.</li>\n<li><strong>Wartość</strong> – unikatowa wartość informacyjna ukryta w dużych i złożonych strukturach danych, dająca możliwość wyciągania nowych wniosków, które następnie przyczyniają się do wzrostu efektywności działania organizacji na różnych płaszczyznach.</li>\n</ul>\n<h3 id=\"użyteczność-i-wykorzystanie-big-data\">Użyteczność i wykorzystanie Big Data</h3>\n<p>S. Parise i in. określają cztery główne kierunki wykorzystania analiz dużych zbiorów danych:</p>\n<ul>\n<li>Analizy społeczne (social analysis)</li>\n<li>Podejmowanie decyzji (decision science).</li>\n<li>Podnoszenie efektywności i skuteczności (performance management).</li>\n<li>Eksploracja danych (data exploration).</li>\n</ul>\n<p>Big Data pozwala niemal natychmiast odpowiedzieć na skomplikowane problemy biznesowe oraz naukowe. Dane mogą być nie tylko naukową wiedzą, ale także informacją biznesową, dzięki której można zyskać wiele wymiernych korzyści związanych z obniżeniem kosztów działalności, organizacji oraz zarządzania. </p>\n<p>Duże strumienie kapitału, skierowane w sektor big data, mogą pozwolić na uzyskanie sukcesu w biznesie oraz osiągnięć naukowych. Jest to niezwykły wymiar, który umożliwia dokonać nowych, nieznanych dotąd operacji. Dostarcza on ogromne możliwości informacyjne. </p>\n<p>Prawidłowo zinterpretowane dane przez specjalistów, mogą wpłynąć na <strong>optymalizację wielu procesów w gospodarce, w polityce</strong> czy <strong>ochronie środowiska</strong>. Ilość różnych dziedzin, w których można wykorzystać big data, jest ogromna. Nie należy jednak do każdego wykorzystania podchodzić jednakowo, a wypracować najbardziej optymalny system zarządzania dla danej branży.</p>\n<p>Trudno zliczyć wszystkie możliwe sektory, w których można wykorzystać naukę o danych, jednak z pewnością można wymienić główne obszary jak na przykład: usługi bankowe, finanse, edukacja, logistyka w transporcie, modelowanie środowiska, oszczędzanie zasobów.</p>\n<p><img src=\"/images/posts/big-data/4.jpg\"></p>\n<h3 id=\"zarządzanie-big-data-i-narzędzia\">Zarządzanie Big Data i narzędzia</h3>\n<p>Zarządzanie dużymi danymi to szeroka koncepcja, która obejmuje zasady, procedury i technologie wykorzystywane do gromadzenia, przechowywania, zarządzania, organizacji, administrowania i dostarczania dużych repozytoriów danych. Może obejmować oczyszczanie danych, migrację, integrację i przygotowanie do użycia w raportach i analizach.<br>\nBig data jest ściśle związane z ideą zarządzania cyklem życia danych (DLM). Jest to szeroka koncepcja określania, które informacje powinny być przechowywane w bazach danych organizacji, a także kiedy dane można bezpiecznie usunąć.</p>\n<p><img src=\"/images/posts/big-data/5.jpg\"></p>\n<p>Nad zespołem data scientists spoczywa ogromna odpowiedzialność wynikająca z dbania o bezpieczeństwo danych, umiejętnego zarządzania. Istotnym jest posiadanie <strong>szerokiej wiedzy</strong> z zakresu ekonomii, <strong>matematyki</strong>, <strong>statystyki</strong> oraz informatyki, a w szczególności <strong>programowania</strong> i <strong>zarządzania bazami danych</strong>. Konieczna jest także umiejętność korzystania z wielu narzędzi przygotowanych do analityki danych. Część z nich jest dostępna jako wolne oprogramowanie, z którego może skorzystać każdy zainteresowany. Jest to zaletą dla szkół oraz samouków, którzy chcą się rozwijać w zakresie big data. Także wiele popularnych przedsiębiorstw, jak na przykład Adobe czy LinkedIn, wykorzystuje <strong>Apache Hadoop</strong>, który jest opensource. </p>\n<p>Istnieją także usługi komercyjne, które udostępniają całe wachlarze usług do zarządzania danymi. Należą do nich na przykład Azure czy AWS.</p>\n<p><img src=\"/images/posts/big-data/6.jpeg\"></p>\n<p><strong>Microsoft Azure</strong> to ciągle rozwijający się zestaw usług w chmurze, który ułatwia sprostanie wyzwaniom biznesowym. Zapewnia swobodę tworzenia i wdrażania aplikacji oraz zarządzania nimi w ogromnej, globalnej sieci przy użyciu wybranych narzędzi i struktur.</p>\n<p><strong>Amazon Web Services</strong> (AWS) to bezpieczna platforma usług w chmurze oferująca moc obliczeniową, przechowywanie baz danych, dostarczanie treści i inne funkcje, które pomagają firmom skalować się i rozwijać. Rozwiązania oparte na chmurze obliczeniowej AWS pozwalają tworzyć zaawansowane aplikacje o zwiększonej elastyczności, skalowalności i niezawodności.</p>\n<p><img src=\"/images/posts/big-data/7.png\"></p>\n<p>Jedną z ciekawych alternatyw dla komercyjnych platform zarządzania danymi jest <strong>Hadoop</strong>, otwarte oprogramowanie stworzone przez fundację Apache, która stworzyła m.in. także narzędzia <strong>Apache Spark</strong> (framework do obliczeń rozproszonych), <strong>Apache Storm</strong> (przetwarzanie strumieniowe), <strong>Kafka</strong> (message broker). Dlaczego warto zwrócić uwagę na Hadoop?</p>\n<ul>\n<li>Zdolność do szybkiego przechowywania i przetwarzania ogromnych ilości danych.</li>\n<li>Zoptymalizowana moc obliczeniowa - model obliczeń rozproszonych Hadoop szybko przetwarza duże ilości danych.</li>\n<li>Odporność na awarie. Jeśli węzeł ulegnie awarii, zadania są automatycznie przekierowywane do innych węzłów, aby upewnić się, że przetwarzanie rozproszone nie zakończy się niepowodzeniem. Wiele kopii wszystkich danych jest zapisywane automatycznie.</li>\n<li>Elastyczność. W przeciwieństwie do tradycyjnych relacyjnych baz danych, nie trzeba przygotowywać danych przed ich zapisaniem.</li>\n<li>Platforma open-source jest darmowa i wykorzystuje sprzęt do przechowywania dużych ilości danych.</li>\n<li>Skalowalność. Można łatwo rozbudować swój system, aby obsługiwać więcej danych przez proste dodawanie węzłów.</li>\n</ul>\n<p><img src=\"/images/posts/big-data/8.png\"></p>\n<p>Do wizualizacji danych przyjemnym i łatwym w obsłudze oprogramowaniem jest produkt Microsoftu - <strong>PowerBI</strong>. Pozwala on przechwytywać dane z baz danych (np mysql, XML, mongoDB) i przedstawiać je w formie kolorowych wykresów.</p>\n<p><img src=\"/images/posts/big-data/9.png\"></p>\n<p>Bibliografia:</p>\n<p><a href=\"https://www.ibm.com/analytics/hadoop/big-data-analytics\" target=\"_blank\" rel=\"nofollow noopener noreferrer\">https://www.ibm.com/analytics/hadoop/big-data-analytics</a></p>\n<p><a href=\"http://www.ce.uw.edu.pl/pliki/pw/3-2017_grabowska.pdf\" target=\"_blank\" rel=\"nofollow noopener noreferrer\">http://www.ce.uw.edu.pl/pliki/pw/3-2017_grabowska.pdf</a></p>\n<p><a href=\"http://www.blog.intracare.pl/narzedzia-analityczne-big-data/\" target=\"_blank\" rel=\"nofollow noopener noreferrer\">http://www.blog.intracare.pl/narzedzia-analityczne-big-data/</a></p>\n<p><a href=\"https://www.evl.uic.edu/cavern/rg/20040525_renambot/Viz/parallel_volviz/paging_outofcore_viz97.pdf\" target=\"_blank\" rel=\"nofollow noopener noreferrer\">https://www.evl.uic.edu/cavern/rg/20040525_renambot/Viz/parallel_volviz/paging_outofcore_viz97.pdf</a></p>\n","excerpt":"","description":"Post, który napisałam jako zadanie domowe z sieci komputerowych.","timeToRead":8,"tags":[{"id":"BigData","title":"BigData","path":"/tag/BigData/"},{"id":"Cloud","title":"Cloud","path":"/tag/Cloud/"}]}}]}}},"context":{}}